%YAML 1.1
%TAG !u! tag:unity3d.com,2011:
--- !u!1045 &1
EditorBuildSettings:
  m_ObjectHideFlags: 0
  serializedVersion: 2
  m_Scenes:
  - enabled: 1
    path: Assets/Scenes/SampleScene.unity
    guid: 2cda990e2423bbf4892e6590ba056729
  - enabled: 1
    path: Assets/Scenes/GameplayScene.unity
    guid: 4156f55eac2cd8c4eb63aec8eb423f96
  - enabled: 1
    path: Assets/Scenes/GameplayScene.unity
    guid: 4156f55eac2cd8c4eb63aec8eb423f96
  - enabled: 1
    path: Assets/Scenes/GameplayScene.unity
    guid: 4156f55eac2cd8c4eb63aec8eb423f96
  - enabled: 1
    path: Assets/Scenes/GameplayScene.unity
    guid: 4156f55eac2cd8c4eb63aec8eb423f96
  - enabled: 1
    path: Assets/Scenes/GameplayScene.unity
    guid: 4156f55eac2cd8c4eb63aec8eb423f96
  - enabled: 1
    path: Assets/Scenes/GameplayScene.unity
    guid: 4156f55eac2cd8c4eb63aec8eb423f96
  - enabled: 1
    path: Assets/Scenes/Gameplay.unity
    guid: fefac957271d44d41afbb16a4f5b5ac1
  - enabled: 1
    path: Assets/Scenes/Gameplay.unity
    guid: fefac957271d44d41afbb16a4f5b5ac1
  - enabled: 1
    path: Assets/Scenes/MainMenu.unity
    guid: 4bde7a9ba1048d84cbc96ca945ca9f00
  - enabled: 1
    path: Assets/Scenes/Gameplay.unity
    guid: fefac957271d44d41afbb16a4f5b5ac1
  - enabled: 1
    path: Assets/Scenes/Gameplay.unity
    guid: fefac957271d44d41afbb16a4f5b5ac1
  - enabled: 1
    path: Assets/Scenes/Gameplay.unity
    guid: fefac957271d44d41afbb16a4f5b5ac1
  m_configObjects: {}
